%!PS-Adobe-2.0 EPSF-1.2
%%Creator: MATLAB, The MathWorks, Inc. Version 7.14.0.739 (R2012a). Operating System: Darwin 12.5.0 Darwin Kernel Version 12.5.0: Sun Sep 29 13:33:47 PDT 2013; root:xnu-2050.48.12~1/RELEASE_X86_64 x86_64.
%%Title: ../../figures/convergence-regularization-30%-occlusion.eps
%%CreationDate: 01/05/2014  12:27:54
%%DocumentNeededFonts: Times-Roman
%%DocumentProcessColors: Cyan Magenta Yellow Black
%%Extensions: CMYK
%%Pages: 1
%%BoundingBox:    43   191   551   593
%%EndComments

%%BeginProlog
% MathWorks dictionary
/MathWorks 160 dict begin
% definition operators
/bdef {bind def} bind def
/ldef {load def} bind def
/xdef {exch def} bdef
/xstore {exch store} bdef
% operator abbreviations
/c  /clip ldef
/cc /concat ldef
/cp /closepath ldef
/gr /grestore ldef
/gs /gsave ldef
/mt /moveto ldef
/np /newpath ldef
/cm /currentmatrix ldef
/sm /setmatrix ldef
/rm /rmoveto ldef
/rl /rlineto ldef
/s {show newpath} bdef
/sc {setcmykcolor} bdef
/sr /setrgbcolor ldef
/sg /setgray ldef
/w /setlinewidth ldef
/j /setlinejoin ldef
/cap /setlinecap ldef
/rc {rectclip} bdef
/rf {rectfill} bdef
% page state control
/pgsv () def
/bpage {/pgsv save def} bdef
/epage {pgsv restore} bdef
/bplot /gsave ldef
/eplot {stroke grestore} bdef
% orientation switch
/portraitMode 0 def /landscapeMode 1 def /rotateMode 2 def
% coordinate system mappings
/dpi2point 0 def
% font control
/FontSize 0 def
/FMS {/FontSize xstore findfont [FontSize 0 0 FontSize neg 0 0]
  makefont setfont} bdef
/reencode {exch dup where {pop load} {pop StandardEncoding} ifelse
  exch dup 3 1 roll findfont dup length dict begin
  { 1 index /FID ne {def}{pop pop} ifelse } forall
  /Encoding exch def currentdict end definefont pop} bdef
/isroman {findfont /CharStrings get /Agrave known} bdef
/FMSR {3 1 roll 1 index dup isroman {reencode} {pop pop} ifelse
  exch FMS} bdef
/csm {1 dpi2point div -1 dpi2point div scale neg translate
 dup landscapeMode eq {pop -90 rotate}
  {rotateMode eq {90 rotate} if} ifelse} bdef
% line types: solid, dotted, dashed, dotdash
/SO { [] 0 setdash } bdef
/DO { [.5 dpi2point mul 4 dpi2point mul] 0 setdash } bdef
/DA { [6 dpi2point mul] 0 setdash } bdef
/DD { [.5 dpi2point mul 4 dpi2point mul 6 dpi2point mul 4
  dpi2point mul] 0 setdash } bdef
% macros for lines and objects
/L {lineto stroke} bdef
/MP {3 1 roll moveto 1 sub {rlineto} repeat} bdef
/AP {{rlineto} repeat} bdef
/PDlw -1 def
/W {/PDlw currentlinewidth def setlinewidth} def
/PP {closepath eofill} bdef
/DP {closepath stroke} bdef
/MR {4 -2 roll moveto dup  0 exch rlineto exch 0 rlineto
  neg 0 exch rlineto closepath} bdef
/FR {MR stroke} bdef
/PR {MR fill} bdef
/L1i {{currentfile picstr readhexstring pop} image} bdef
/tMatrix matrix def
/MakeOval {newpath tMatrix currentmatrix pop translate scale
0 0 1 0 360 arc tMatrix setmatrix} bdef
/FO {MakeOval stroke} bdef
/PO {MakeOval fill} bdef
/PD {currentlinewidth 2 div 0 360 arc fill
   PDlw -1 eq not {PDlw w /PDlw -1 def} if} def
/FA {newpath tMatrix currentmatrix pop translate scale
  0 0 1 5 -2 roll arc tMatrix setmatrix stroke} bdef
/PA {newpath tMatrix currentmatrix pop	translate 0 0 moveto scale
  0 0 1 5 -2 roll arc closepath tMatrix setmatrix fill} bdef
/FAn {newpath tMatrix currentmatrix pop translate scale
  0 0 1 5 -2 roll arcn tMatrix setmatrix stroke} bdef
/PAn {newpath tMatrix currentmatrix pop translate 0 0 moveto scale
  0 0 1 5 -2 roll arcn closepath tMatrix setmatrix fill} bdef
/vradius 0 def /hradius 0 def /lry 0 def
/lrx 0 def /uly 0 def /ulx 0 def /rad 0 def
/MRR {/vradius xdef /hradius xdef /lry xdef /lrx xdef /uly xdef
  /ulx xdef newpath tMatrix currentmatrix pop ulx hradius add uly
  vradius add translate hradius vradius scale 0 0 1 180 270 arc 
  tMatrix setmatrix lrx hradius sub uly vradius add translate
  hradius vradius scale 0 0 1 270 360 arc tMatrix setmatrix
  lrx hradius sub lry vradius sub translate hradius vradius scale
  0 0 1 0 90 arc tMatrix setmatrix ulx hradius add lry vradius sub
  translate hradius vradius scale 0 0 1 90 180 arc tMatrix setmatrix
  closepath} bdef
/FRR {MRR stroke } bdef
/PRR {MRR fill } bdef
/MlrRR {/lry xdef /lrx xdef /uly xdef /ulx xdef /rad lry uly sub 2 div def
  newpath tMatrix currentmatrix pop ulx rad add uly rad add translate
  rad rad scale 0 0 1 90 270 arc tMatrix setmatrix lrx rad sub lry rad
  sub translate rad rad scale 0 0 1 270 90 arc tMatrix setmatrix
  closepath} bdef
/FlrRR {MlrRR stroke } bdef
/PlrRR {MlrRR fill } bdef
/MtbRR {/lry xdef /lrx xdef /uly xdef /ulx xdef /rad lrx ulx sub 2 div def
  newpath tMatrix currentmatrix pop ulx rad add uly rad add translate
  rad rad scale 0 0 1 180 360 arc tMatrix setmatrix lrx rad sub lry rad
  sub translate rad rad scale 0 0 1 0 180 arc tMatrix setmatrix
  closepath} bdef
/FtbRR {MtbRR stroke } bdef
/PtbRR {MtbRR fill } bdef
/stri 6 array def /dtri 6 array def
/smat 6 array def /dmat 6 array def
/tmat1 6 array def /tmat2 6 array def /dif 3 array def
/asub {/ind2 exch def /ind1 exch def dup dup
  ind1 get exch ind2 get sub exch } bdef
/tri_to_matrix {
  2 0 asub 3 1 asub 4 0 asub 5 1 asub
  dup 0 get exch 1 get 7 -1 roll astore } bdef
/compute_transform {
  dmat dtri tri_to_matrix tmat1 invertmatrix 
  smat stri tri_to_matrix tmat2 concatmatrix } bdef
/ds {stri astore pop} bdef
/dt {dtri astore pop} bdef
/db {2 copy /cols xdef /rows xdef mul dup 3 mul string
  currentfile exch readhexstring pop
  dup 0 3 index getinterval /rbmap xdef
  dup 2 index dup getinterval /gbmap xdef
  1 index dup 2 mul exch getinterval /bbmap xdef pop pop}bdef
/it {gs np dtri aload pop moveto lineto lineto cp c
  cols rows 8 compute_transform 
  rbmap gbmap bbmap true 3 colorimage gr}bdef
/il {newpath moveto lineto stroke}bdef
currentdict end def
%%EndProlog

%%BeginSetup
MathWorks begin

0 cap

end
%%EndSetup

%%Page: 1 1
%%BeginPageSetup
%%PageBoundingBox:    43   191   551   593
MathWorks begin
bpage
%%EndPageSetup

%%BeginObject: obj1
bplot

/dpi2point 12 def
portraitMode 0216 7344 csm

  310   223  6090  4827 MR c np
87 dict begin %Colortable dictionary
/c0 { 0.000000 0.000000 0.000000 sr} bdef
/c1 { 1.000000 1.000000 1.000000 sr} bdef
/c2 { 0.900000 0.000000 0.000000 sr} bdef
/c3 { 0.000000 0.820000 0.000000 sr} bdef
/c4 { 0.000000 0.000000 0.800000 sr} bdef
/c5 { 0.910000 0.820000 0.320000 sr} bdef
/c6 { 1.000000 0.260000 0.820000 sr} bdef
/c7 { 0.000000 0.820000 0.820000 sr} bdef
c0
1 j
1 sg
   0    0 6913 5186 PR
6 w
0 4226 5355 0 0 -4226 899 4615 4 MP
PP
-5355 0 0 4226 5355 0 0 -4226 899 4615 5 MP stroke
4 w
DO
SO
6 w
0 sg
 899 4615 mt 6254 4615 L
 899 4615 mt  899  389 L
 899 4615 mt  899 4561 L
%%IncludeResource: font Times-Roman
/Times-Roman /ISOLatin1Encoding 192 FMSR

 851 4821 mt 
(0) s
1664 4615 mt 1664 4561 L
1616 4821 mt 
(5) s
2429 4615 mt 2429 4561 L
2333 4821 mt 
(10) s
3194 4615 mt 3194 4561 L
3098 4821 mt 
(15) s
3959 4615 mt 3959 4561 L
3863 4821 mt 
(20) s
4724 4615 mt 4724 4561 L
4628 4821 mt 
(25) s
5489 4615 mt 5489 4561 L
5393 4821 mt 
(30) s
6255 4615 mt 6255 4561 L
6159 4821 mt 
(35) s
 899 4615 mt  952 4615 L
 768 4683 mt 
(0) s
 899 4192 mt  952 4192 L
 672 4260 mt 
(10) s
 899 3769 mt  952 3769 L
 672 3837 mt 
(20) s
 899 3347 mt  952 3347 L
 672 3415 mt 
(30) s
 899 2924 mt  952 2924 L
 672 2992 mt 
(40) s
 899 2502 mt  952 2502 L
 672 2570 mt 
(50) s
 899 2079 mt  952 2079 L
 672 2147 mt 
(60) s
 899 1656 mt  952 1656 L
 672 1724 mt 
(70) s
 899 1234 mt  952 1234 L
 672 1302 mt 
(80) s
 899  811 mt  952  811 L
 672  879 mt 
(90) s
 899  389 mt  952  389 L
 576  457 mt 
(100) s
gs 899 389 5357 4227 MR c np
24 w
/c8 { 0.363922 0.575529 0.748392 sr} bdef
c8
153 5 153 5 153 6 153 6 153 6 153 7 153 8 153 7 
153 8 153 9 153 9 153 10 153 11 153 12 153 14 153 14 
153 16 153 16 153 20 153 22 153 25 153 31 153 34 153 43 
153 51 153 68 153 83 153 109 153 143 153 262 153 454 1052 2947 32 MP stroke
DA
153 3 153 4 153 5 153 7 153 1 153 -1 153 7 153 6 
153 8 153 9 153 8 153 6 153 6 153 6 153 8 153 7 
153 4 153 3 153 8 153 20 153 24 153 -2 153 20 153 6 
153 16 153 14 153 40 153 79 153 153 153 181 153 393 1052 808 32 MP stroke
SO
/c9 { 0.915294 0.281569 0.287843 sr} bdef
c9
153 5 153 6 153 6 153 6 153 7 153 7 153 8 153 8 
153 8 153 9 153 10 153 10 153 11 153 13 153 13 153 16 
153 17 153 18 153 21 153 23 153 26 153 30 153 37 153 43 
153 54 153 68 153 92 153 110 153 151 153 263 153 496 1052 2859 32 MP stroke
DA
153 3 153 1 153 1 153 2 153 3 153 4 153 2 153 2 
153 4 153 1 153 2 153 1 153 4 153 5 153 8 153 6 
153 13 153 8 153 11 153 13 153 13 153 21 153 17 153 23 
153 31 153 43 153 38 153 39 153 74 153 149 153 364 1052 704 32 MP stroke
gr

24 w
c9
DA
0 sg
%%IncludeResource: font Times-Roman
/Times-Roman /ISOLatin1Encoding 168 FMSR

2764 4989 mt 
(Number of Components) s
 485 3296 mt  -90 rotate
(Normalized RMS Error) s
90 rotate
 878 4673 mt 
( ) s
6235  446 mt 
( ) s
SO
6 w
1 sg
0 818 3787 0 0 -818 2409 1267 4 MP
PP
-3787 0 0 818 3787 0 0 -818 2409 1267 5 MP stroke
4 w
DO
SO
6 w
0 sg
2409 1267 mt 6196 1267 L
2409  449 mt 6196  449 L
2409 1267 mt 2409  449 L
6196 1267 mt 6196  449 L
2409 1267 mt 6196 1267 L
2409 1267 mt 2409  449 L
2409 1267 mt 6196 1267 L
2409  449 mt 6196  449 L
2409 1267 mt 2409  449 L
6196 1267 mt 6196  449 L
2801  621 mt 
(oriented-cm-formlets \(unoccluded\)) s
gs 2409 449 3788 819 MR c np
24 w
c8
301 0 2469 563 2 MP stroke
gr

24 w
c8
0 sg
2801  817 mt 
(oriented-cm-regularized-formlets \(unoccluded\)) s
gs 2409 449 3788 819 MR c np
c9
301 0 2469 759 2 MP stroke
gr

c9
0 sg
2801 1014 mt 
(oriented-cm-formlets \(occluded\)) s
gs 2409 449 3788 819 MR c np
DA
c8
301 0 2469 956 2 MP stroke
SO
gr

c8
0 sg
2801 1210 mt 
(oriented-cm-regularized-formlets \(unoccluded\)) s
gs 2409 449 3788 819 MR c np
DA
c9
301 0 2469 1152 2 MP stroke
SO
6 w
gr

6 w
c9

end %%Color Dict

eplot
%%EndObject

epage
end

showpage

%%Trailer
%%EOF
